<?xml version="1.0" ?>
<sdf version="1.5">
  <world name="kitchen_world">

    <physics type="ode">
      <gravity>0 0 -9.8</gravity>
        <max_step_size>0.001</max_step_size>
    </physics>

    <gui>
      <camera name="kitchen_camera">
	<pose>-1 0.1 1.5 0 0.4 0</pose>
      </camera>
    </gui>

    <scene>
      <sky>
	<clouds>
	  <speed>12</speed>
	</clouds>
      </sky>
    </scene>

    <include>
      <uri>model://sun_vertical</uri>
    </include>

    <include>
      <uri>model://kitchen_floor</uri>
    </include>

    <include>
      <uri>model://pr2_r_gripper</uri>
      <pose>0 0 1 0 0 0</pose>
    </include>

    <!-- Load the plugin for publishing Razer Hydra -->
    <plugin name="hydra" filename="libHydraPlugin.so"></plugin>  

    </world>
</sdf>
