<?xml version="1.0" ?>
<sdf version="1.5">
  <world name="acat1_world">

    <gui>
      <camera name="camera">
	<pose>-1 0.1 1.5 0 0.4 0</pose>
      </camera>
    </gui>

    <include>
      <uri>model://pr2_r_gripper</uri>
      <pose>0 0 1 0 0 0</pose>
    </include>

    <include>
      <uri>model://sun_vertical</uri>
    </include>

    <include>
      <uri>model://floor</uri>
    </include>

    <include>
      <uri>model://desk</uri>
    </include> 

    <include>
      <uri>model://support_1</uri>
      <pose>0.35 0.6 0.91 0.0 0.0 0.0</pose>
    </include> 

    <include>
        <uri>model://pressure_ring</uri>
        <pose>0.32 0.6 1.01 0.0 3.14 0.0</pose>
    </include>

    <include>
        <uri>model://mug</uri>
        <pose>0.45 -0.3 0.95100 0.0 0.0 0.0</pose>
    </include>

    <!-- Load the plugin for publishing Razer Hydra -->
    <plugin name="hydra" filename="libHydraPlugin.so"></plugin>

  </world>
</sdf>
