<?xml version="1.0" ?>
<sdf version="1.5">
    <world name="acat_experiment_07">

        <!-- Camera and standard equipment. -->
        <gui>
            <camera name="kitchen_camera">
                <pose>-1 0.1 1.5 0 0.4 0</pose>
            </camera>
        </gui>

        <include>
            <uri>model://sun_vertical</uri>
        </include>

        <include>
            <uri>model://floor</uri>
        </include>

        <include>
            <uri>model://desk</uri>
        </include>

        <!-- Gripper. -->
        <include>
            <uri>model://pr2_r_gripper</uri>
            <pose>0 0 1 0 0 0</pose>
        </include>

        <!-- Experiment specific objects. -->
        <include>
            <uri>model://bottle_500ml</uri>
            <pose>0.149 0.1385 0.8511 0.0 0.0 0.0</pose>
        </include>

        <include>
            <uri>model://carry_box</uri>
            <pose>0.3 0.4 0.8 0.0 0.0 0.3</pose>
            <static>1</static>
        </include>

        <!-- Load the plugin for publishing Razer Hydra -->
        <plugin name="hydra" filename="libHydraPlugin.so"></plugin>

    </world>
</sdf>
