<?xml version="1.0" ?>
<sdf version="1.5">
    <world name="acat_experiment_19">

        <!-- Camera and standard equipment. -->
        <gui>
            <camera name="kitchen_camera">
                <pose>-1 0.1 1.5 0 0.4 0</pose>
            </camera>
        </gui>

        <include>
            <uri>model://sun_vertical</uri>
        </include>

        <include>
            <uri>model://floor</uri>
        </include>

        <include>
            <uri>model://desk</uri>
        </include>

        <!-- Gripper. -->
        <include>
            <uri>model://pr2_r_gripper</uri>
            <pose>0 0 1 0 0 0</pose>
        </include>

        <!-- Experiment specific objects. -->
        <include>
            <uri>model://cup</uri>
            <pose>0.35 -0.3 0.851 0.0 0.0 0.0</pose>
        </include>

        <include>
            <uri>model://in_glass</uri>
            <pose>0.25 0.3 0.852 0.0 0.0 0.0</pose>
        </include>

        <!-- Load the plugin for publishing Razer Hydra -->
        <plugin name="hydra" filename="libHydraPlugin.so"></plugin>

    </world>
</sdf>
